MA [46]15 Final Project TEAM 2 - Analysis
…
            Male.Population = first(Male.Population),
            Female.Population = first(Female.Population),
            Foreign.born = first(Foreign.born),
            Average.Household.Size = first(Average.Household.Size),
            White = first(White),
            `Black or African-American` = first(`Black or African-American`),
            `Hispanic or Latino` = first(`Hispanic or Latino`),
            Asian = first(Asian),
            `American Indian and Alaska Native` = first(`American Indian and Alaska Native`)
            )|>
  arrange(desc(Fatalities))
model_data <- na.omit(model_data)
print(model_data)

# A tibble: 401 × 12
   City     Fatalities Median.Age Male.Population Female.Population Foreign.born
   <chr>         <int>      <dbl>           <int>             <int>        <int>
 1 Los Ang…        252       35           1958998           2012898      1485425
 2 Houston         179       32.6         1149686           1148942       696210
 3 Las Veg…        133       37.5          310568            313201       127609
 4 Chicago          91       34.2         1320015           1400541       573463
 5 Dallas           78       32.6          639019            661063       326825
 6 Phoenix          75       33.8          786833            776168       300702
 7 Fresno           67       30            256130            263942       103453
 8 Kansas …         61       35.9          228430            246931        37787
 9 San Die…         59       34.5          693826            701081       373842
10 Long Be…         52       34.6          238159            236013       127764
# ℹ 391 more rows
# ℹ 6 more variables: Average.Household.Size <dbl>, White <int>,
#   `Black or African-American` <int>, `Hispanic or Latino` <int>, Asian <int>,
#   `American Indian and Alaska Native` <int>
…
