MA [46]15 Final Project TEAM 2 - draft for analysis
…
comparison_df <- 
  left_join(fatalities_by_race_city_state, population_by_race_city_state, by = c("State", "City", "Race"))|>
  mutate(
    FatalityPercentage = (Fatalities / sum(Fatalities)) * 100,
    PopulationPercentage = (Population / sum(Population)) * 100
  )
print(comparison_df)

# A tibble: 922 × 7
   State   City       Race              Fatalities Population FatalityPercentage
   <chr>   <chr>      <chr>                  <int>      <int>              <dbl>
 1 Alabama Birmingham Black or African…         15     157985             0.373 
 2 Alabama Birmingham White                      1      51728             0.0249
 3 Alabama Dothan     Black or African…          2      23243             0.0497
 4 Alabama Dothan     White                      2      43516             0.0497
 5 Alabama Hoover     White                      3      61869             0.0746
 6 Alabama Huntsville Black or African…          3      61561             0.0746
 7 Alabama Huntsville Hispanic or Lati…          3      10887             0.0746
 8 Alabama Huntsville White                      6     121904             0.149 
 9 Alabama Mobile     Black or African…          6      96397             0.149 
10 Alabama Mobile     White                      5      93755             0.124 
# ℹ 912 more rows
# ℹ 1 more variable: PopulationPercentage <dbl>
