MA [46]15 Final Project TEAM 2 - Blog Post 3
…
prc |> na.omit() |> group_by(State) |> summarize(n = n()) |> arrange(-n)

# A tibble: 51 × 2
   State     n
   <chr> <int>
 1 CA      966
 2 TX      494
 3 FL      310
 4 AZ      194
 5 NV      153
 6 NY      137
 7 WA      137
 8 CO      125
 9 OH      123
10 IL      121
# ℹ 41 more rows
…
